causal_inference
…
## `summarise()` has grouped output by 'treat'. You can override using the `.groups` argument.

## # A tibble: 4 x 3
## # Groups:   treat [2]
##   treat earnings_year average_earnings
##   <dbl> <chr>                    <dbl>
## 1     0 re75                    19063.
## 2     0 re78                    21554.
## 3     1 re75                     1532.
## 4     1 re78                     6349.

plot_data

## # A tibble: 5,350 x 13
##      age education black hispanic married nodegree  re74   u74   u75 treat    id
##    <dbl>     <dbl> <dbl>    <dbl>   <dbl>    <dbl> <dbl> <dbl> <dbl> <dbl> <int>
##  1    37        11     1        0       1        1     0     1     1     1     1
##  2    37        11     1        0       1        1     0     1     1     1     1
##  3    22         9     0        1       0        1     0     1     1     1     2
##  4    22         9     0        1       0        1     0     1     1     1     2
##  5    30        12     1        0       0        0     0     1     1     1     3
##  6    30        12     1        0       0        0     0     1     1     1     3
##  7    27        11     1        0       0        1     0     1     1     1     4
##  8    27        11     1        0       0        1     0     1     1     1     4
##  9    33         8     1        0       0        1     0     1     1     1     5
## 10    33         8     1        0       0        1     0     1     1     1     5
## # ... with 5,340 more rows, and 2 more variables: earnings_year <chr>,
## #   earnings <dbl>
…
